
                                        
       -yyyyyyyyyyyso+/:.               
       -yyyyyyyyyyysssssso/`            
       -yyyyyyyyyyysssssssss:           
       -yyyyyyyyyysssssssssss/          
                    ./ssssssss.         
     ..`              +sssssss:         
       `..           `////////.
       `.-:-.......-://///////
       `::::::::::://////////`          ```````````     ````       ````        ``````````      `````````    ````         ````        ````   ```````````  ````    ````
       `:::::::::::////////-            ```````````     `````      ````        ```````````    ```````````   ````         `````      `````   ```````````  `````   ````
       `::::::::::://///:.              ````           ``````      ````        ````    ````   ````    ````  ````         ``````    ``````   ````         `````   ````
       `/++++++/+++--.`     `           ````           ```````     ````        ````    ````   ````    ````  ````         ``````    ``````   ````         ``````  ````
        `/yyyyysoyyy:     -///-         ````          ```` ```     ````        ````    ````   ````    ````  ````         ```````  ```````   ````         ``````` ````
          .oyyyy+yyhyo..  :///:         ``````````    ```  ````    ````        ````    ````   ````    ````  ````         ````````````````   ``````````   ``` ````````
            :syy+oossyyo.  `.`          ````         ````  ````    ````        ````    ````   ````    ````  ````         ```` `````` ````   ````         ```  ```````
             `/o+oyhhhhhy+`             ````         ```````````   ````        ````    ````   ````    ````  ````         ````  ````  ````   ````         ```  ```````
              -.+syhhhhhhhy/            ````        ````````````   ````        ````    ````   ````    ````  ````         ````  ````  ````   ````         ```   ``````
             `-..:shhhhhhhhhy:          ``````````` ````     ````  ``````````  ```````````    ```````````   ```````````  ````        ````   ```````````  ```    `````
              ``   ```````````
